<?xml version="1.0" encoding="utf-8"?>
<!-- Generator: Adobe Illustrator 21.0.0, SVG Export Plug-In . SVG Version: 6.00 Build 0)  -->
<svg version="1.1" id="Layer_1" xmlns="http://www.w3.org/2000/svg" xmlns:xlink="http://www.w3.org/1999/xlink" x="0px" y="0px"
	 viewBox="0 0 88.5 88.4" style="enable-background:new 0 0 88.5 88.4;" xml:space="preserve">
<style type="text/css">
	.st0{clip-path:url(#SVGID_2_);fill:url(#SVGID_3_);}
</style>
<g>
	<defs>
		<path id="SVGID_1_" d="M16.1,26.2c-0.2,0-0.4,0.2-0.4,0.4v29.9c0,0.2,0.2,0.4,0.4,0.4h4.9c0.2,0,0.4-0.2,0.4-0.4V26.6
			c0-0.2-0.2-0.4-0.4-0.4H16.1z M23.4,26.2c-0.2,0-0.4,0.2-0.4,0.4v29.9c0,0.2,0.2,0.4,0.4,0.4h2.4c0.2,0,0.4-0.2,0.4-0.4V26.6
			c0-0.2-0.2-0.4-0.4-0.4H23.4z M29.4,26.2c-0.2,0-0.4,0.2-0.4,0.4v29.9c0,0.2,0.2,0.4,0.4,0.4h3.8c0.2,0,0.4-0.2,0.4-0.4V26.6
			c0-0.2-0.2-0.4-0.4-0.4H29.4z M35,26.2c-0.2,0-0.4,0.2-0.4,0.4v29.9c0,0.2,0.2,0.4,0.4,0.4h1.9c0.2,0,0.4-0.2,0.4-0.4V26.6
			c0-0.2-0.2-0.4-0.4-0.4H35z M38.5,26.2c-0.2,0-0.4,0.2-0.4,0.4v29.9c0,0.2,0.2,0.4,0.4,0.4h2c0.2,0,0.4-0.2,0.4-0.4V26.6
			c0-0.2-0.2-0.4-0.4-0.4H38.5z M43.6,26.2c-0.2,0-0.4,0.2-0.4,0.4v29.9c0,0.2,0.2,0.4,0.4,0.4h4.9c0.2,0,0.4-0.2,0.4-0.4V26.6
			c0-0.2-0.2-0.4-0.4-0.4H43.6z M50.8,26.2c-0.2,0-0.4,0.2-0.4,0.4v22.1c0,0.2,0.1,0.3,0.3,0.3c0,0,0.1,0,0.1,0
			c0.1,0,0.2-0.1,0.3-0.2c0.7-1.4,1.7-2.6,3-3.7c0.1-0.1,0.1-0.2,0.1-0.3V26.6c0-0.2-0.2-0.4-0.4-0.4H50.8z M56.9,26.2
			c-0.2,0-0.4,0.2-0.4,0.4v16.3c0,0.1,0.1,0.2,0.2,0.3c0.1,0,0.1,0.1,0.2,0.1c0.1,0,0.1,0,0.2,0c0.6-0.3,1.2-0.5,1.8-0.7
			c0.1,0,0.3-0.2,0.3-0.3V26.6c0-0.2-0.2-0.4-0.4-0.4H56.9z M61.2,26.2c-0.2,0-0.4,0.2-0.4,0.4v15.1c0,0.1,0,0.2,0.1,0.3
			C61,42,61.1,42,61.2,42c0,0,0,0,0,0c0.3,0,0.5,0,0.8,0l0.1,0c0.2,0,0.3-0.2,0.3-0.4v-15c0-0.2-0.2-0.4-0.4-0.4H61.2z M64.3,26.2
			c-0.2,0-0.4,0.2-0.4,0.4v15.1c0,0.2,0.1,0.3,0.3,0.4c1,0.1,2,0.4,3,0.7c0,0,0.1,0,0.1,0c0.1,0,0.1,0,0.2-0.1
			c0.1-0.1,0.2-0.2,0.2-0.3V26.6c0-0.2-0.2-0.4-0.4-0.4H64.3z M69.9,26.2c-0.2,0-0.4,0.2-0.4,0.4v17.1c0,0.1,0.1,0.2,0.2,0.3
			c0.9,0.6,1.7,1.2,2.4,1.9c0.1,0.1,0.2,0.1,0.3,0.1c0,0,0.1,0,0.1,0c0.1-0.1,0.2-0.2,0.2-0.3V26.6c0-0.2-0.2-0.4-0.4-0.4H69.9z
			 M54.1,55.1c0-4.7,3.8-8.6,8.6-8.6c4.7,0,8.6,3.8,8.6,8.6s-3.8,8.6-8.6,8.6C57.9,63.6,54.1,59.8,54.1,55.1 M6.2,44.3
			c0-21,17.1-38.1,38.1-38.1c21,0,38.1,17.1,38.1,38.1c0,7.9-2.4,15.2-6.5,21.3L72.3,62c1.4-2,2.2-4.3,2.2-6.9
			c0-6.6-5.4-11.9-11.9-11.9c-6.6,0-11.9,5.4-11.9,11.9c0,6.6,5.4,11.9,11.9,11.9c2.6,0,4.9-0.8,6.9-2.2l4,4
			c-7,8.3-17.5,13.6-29.2,13.6C23.3,82.5,6.2,65.4,6.2,44.3 M0,44.3c0,22.7,17.1,41.4,39.1,44h10.6c20.7-2.5,37.1-19.3,38.9-40.3
			v-7.5C86.6,17.9,67.5,0,44.3,0C19.9,0,0,19.9,0,44.3"/>
	</defs>
	<clipPath id="SVGID_2_">
		<use xlink:href="#SVGID_1_"  style="overflow:visible;"/>
	</clipPath>
	
		<linearGradient id="SVGID_3_" gradientUnits="userSpaceOnUse" x1="-1250.9072" y1="222.444" x2="-1249.907" y2="222.444" gradientTransform="matrix(88.6932 0 0 -88.6932 110946.9609 19773.457)">
		<stop  offset="0" style="stop-color:#FAA61A"/>
		<stop  offset="1" style="stop-color:#FFD600"/>
	</linearGradient>
	<rect class="st0" width="88.5" height="88.4"/>
</g>
</svg>
